Sesion 12
…
library(pacman)
p_load(broom, janitor, moderndive, Rlab, tidyverse)

# Base de datos de publicidad. 
publicidad <- 
  read_csv("http://segasi.com.mx/clases/cide/datos/Advertising.csv") %>%
# Eliminamos el indice
  select(-X1) %>% 
# Limpiamos nombres
  clean_names()

# Exploramos la Base de datos
publicidad

## # A tibble: 200 x 4
##       tv radio newspaper sales
##    <dbl> <dbl>     <dbl> <dbl>
##  1 230.   37.8      69.2  22.1
##  2  44.5  39.3      45.1  10.4
##  3  17.2  45.9      69.3   9.3
##  4 152.   41.3      58.5  18.5
##  5 181.   10.8      58.4  12.9
##  6   8.7  48.9      75     7.2
##  7  57.5  32.8      23.5  11.8
##  8 120.   19.6      11.6  13.2
##  9   8.6   2.1       1     4.8
## 10 200.    2.6      21.2  10.6
## # … with 190 more rows
…
Ejercicio 3

Usa la función augment() para extraer otro chunk de datos del objeto modelo.

A partir del tibble que obtendrás, haz una gráfica con dos capas. La primera es de puntos, para representar la relación entre sales y radio (acuérdate que las variables deben respetar cierto orden en los ejes).

La segunda capa es una gráfica de líneas, para representar los valores predichos por el modelo para sales y radio.

# Obtenemos los datos aumentados con augment: 
augment(modelo)

## # A tibble: 200 x 9
##    sales radio .fitted .se.fit   .resid    .hat .sigma   .cooksd .std.resid
##    <dbl> <dbl>   <dbl>   <dbl>    <dbl>   <dbl>  <dbl>     <dbl>      <dbl>
##  1  22.1  37.8   17.0    0.424   5.13   0.00982   4.27   7.22e-3     1.21  
##  2  10.4  39.3   17.3    0.446  -6.87   0.0109    4.26   1.43e-2    -1.62  
##  3   9.3  45.9   18.6    0.552  -9.31   0.0167    4.23   4.09e-2    -2.20  
##  4  18.5  41.3   17.7    0.476   0.825  0.0124    4.29   2.37e-4     0.194 
##  5  12.9  10.8   11.5    0.395   1.40   0.00854   4.28   4.67e-4     0.329 
##  6   7.2  48.9   19.2    0.604 -12.0    0.0200    4.20   8.22e-2    -2.84  
##  7  11.8  32.8   16.0    0.360  -4.15   0.00707   4.28   3.39e-3    -0.975 
##  8  13.2  19.6   13.3    0.311  -0.0806 0.00531   4.29   9.52e-7    -0.0189
##  9   4.8   2.1    9.74   0.527  -4.94   0.0152    4.27   1.05e-2    -1.16  
## 10  10.6   2.6    9.84   0.519   0.762  0.0147    4.29   2.41e-4     0.180 
## # … with 190 more rows
…
