Laboratorio 3 - Respuestas a Tarea 3
…
# Paso 2 - Definir el tamaño de cada muestra y el número de muestras
tamaño_muestra <- 1000
numero_muestras <- 100

# Paso 3 - Calcular la media de cada muestra y el error estándar de la media muestral, estimando la desviación estándar de la variable poblacional.

set.seed(4)
datos %>%
  rep_sample_n(size = tamaño_muestra,
               replace = T,
               reps = numero_muestras) %>%
  summarise(media_muestral = mean(valores),
            error_est_datos_muestra = sd(valores)/sqrt(tamaño_muestra))

## # A tibble: 100 x 3
##    replicate media_muestral error_est_datos_muestra
##        <int>          <dbl>                   <dbl>
##  1         1    0.01835448               0.03142291
##  2         2    0.03685524               0.03065791
##  3         3    0.003059765              0.03218418
##  4         4    0.03721368               0.03173951
##  5         5    0.05931238               0.03180650
##  6         6    0.01661044               0.03241960
##  7         7   -0.02390758               0.03190266
##  8         8    0.02488777               0.03060030
##  9         9    0.01402477               0.03225584
## 10        10   -0.04237659               0.03127836
## # … with 90 more rows
…
Usa el siguiente código para construir la distribución:

datos <- tibble(valores = rgamma(n = 1e5, shape = 2, scale = 1))

Toma 100 muestras aleatorias de tamaño 120, calcula la media de cada muestra y el o los error(es) muestral(es)

datos %>%
  rep_sample_n(size = 120, reps = 100) %>%
# Calculamos la media de cada muestra
  summarise(media_muestral = mean(valores)) %>%
# Calculamos el error muestral de cada muestra con el Par. Pob.
  mutate(error_muestral = media_muestral - mean(datos$valores))

## # A tibble: 100 x 3
##    replicate media_muestral error_muestral
##        <int>          <dbl>          <dbl>
##  1         1       1.995074    0.004581609
##  2         2       1.912890   -0.07760184 
##  3         3       2.076706    0.08621392 
##  4         4       1.865318   -0.1251737  
##  5         5       1.732433   -0.2580587  
##  6         6       1.922717   -0.06777534 
##  7         7       2.043008    0.05251626 
##  8         8       2.016195    0.02570304 
##  9         9       2.123461    0.1329694  
## 10        10       2.241213    0.2507209  
## # … with 90 more rows
…
