Laboratorio 4
…
---

Después de hacerlo, deberías un `tibble` como este:

```r
foo <- 
  tibble(valores = rnorm(n = 10000, mean = 14, sd = 3.5)) %>%
  rep_sample_n(size = 500, replace = F, reps = 10000) %>% 
  summarise(varianza_muestral = var(valores))

foo
```

```
## # A tibble: 10,000 x 2
##    replicate varianza_muestral
##        <int>             <dbl>
##  1         1              12.7
##  2         2              12.1
##  3         3              12.0
##  4         4              12.8
##  5         5              12.6
##  6         6              11.9
##  7         7              11.1
##  8         8              11.9
##  9         9              11.4
## 10        10              12.2
## # … with 9,990 more rows
```
…
---

* (4.) Podemos sacar el error muestral, para cada muestra, dado que conocemos los parámetros poblacionales.

```r
foo %>% 
  mutate(errorMuestral = varianza_muestral - varianza)
```

```
## # A tibble: 10,000 x 3
##    replicate varianza_muestral errorMuestral
##        <int>             <dbl>         <dbl>
##  1         1              12.7        0.402 
##  2         2              12.1       -0.162 
##  3         3              12.0       -0.202 
##  4         4              12.8        0.576 
##  5         5              12.6        0.364 
##  6         6              11.9       -0.318 
##  7         7              11.1       -1.15  
##  8         8              11.9       -0.391 
##  9         9              11.4       -0.843 
## 10        10              12.2       -0.0382
## # … with 9,990 more rows
```
…
